<?xml version="1.0" encoding="utf-8"?>
<!-- Generator: Adobe Illustrator 19.0.0, SVG Export Plug-In . SVG Version: 6.00 Build 0)  -->
<svg version="1.1" id="Capa_1" xmlns="http://www.w3.org/2000/svg" xmlns:xlink="http://www.w3.org/1999/xlink" x="0px" y="0px"
	 viewBox="0 0 595.3 841.9" style="enable-background:new 0 0 595.3 841.9;" xml:space="preserve">
<style type="text/css">
	.st0{fill:#22A1D3;stroke:#000000;stroke-miterlimit:10;}
	.st1{fill:#FFFFFF;stroke:#000000;stroke-miterlimit:10;}
	.st2{fill:none;stroke:#000000;stroke-miterlimit:10;}
	.st3{fill:#FFFFFF;}
	.st4{fill:#22A1D3;}
	.st5{fill:#4661A4;stroke:#000000;stroke-miterlimit:10;}
	.st6{fill:none;stroke:#000000;stroke-width:4;stroke-miterlimit:10;}
</style>
<path id="XMLID_13_" class="st0" d="M537.6,616.4H60.4C42,616.4,27,601.5,27,583.1V119.4C27,101,42,86.1,60.4,86.1h477.3
	c18.4,0,33.3,14.9,33.3,33.3v463.6C571,601.5,556,616.4,537.6,616.4z"/>
<path id="XMLID_4_" class="st1" d="M192.9,581.5h-28.8c-3.8,0-6.8-3.1-6.8-6.8v-57.6c0-3.8,3.1-6.8,6.8-6.8h28.8
	c3.8,0,6.8,3.1,6.8,6.8v57.6C199.8,578.5,196.7,581.5,192.9,581.5z"/>
<rect id="XMLID_2_" x="514.9" y="195.2" class="st1" width="27.3" height="68.2"/>
<rect id="XMLID_5_" x="63.4" y="195.2" class="st1" width="27.3" height="68.2"/>
<line id="XMLID_6_" class="st2" x1="63.4" y1="195.2" x2="119.5" y2="195.2"/>
<line id="XMLID_7_" class="st2" x1="542.2" y1="195.2" x2="480.1" y2="195.2"/>
<path id="XMLID_3_" class="st1" d="M436.9,581.5h-28.8c-3.8,0-6.8-3.1-6.8-6.8v-57.6c0-3.8,3.1-6.8,6.8-6.8h28.8
	c3.8,0,6.8,3.1,6.8,6.8v57.6C443.7,578.5,440.6,581.5,436.9,581.5z"/>
<path id="XMLID_9_" class="st1" d="M456.6,510.3H142.9c-13,0-23.5-10.5-23.5-23.5V367.2c0-13,10.5-23.5,23.5-23.5h313.6
	c13,0,23.5,10.5,23.5,23.5v119.7C480.1,499.8,469.5,510.3,456.6,510.3z"/>
<path id="XMLID_10_" class="st3" d="M456.6,122.5H142.9c-13,0-23.5,10.5-23.5,23.5v25.8c0,13,10.5,23.5,23.5,23.5h313.6
	c13,0,23.5-10.5,23.5-23.5v-25.8C480.1,133,469.5,122.5,456.6,122.5z"/>
<path id="XMLID_12_" class="st4" d="M162.9,432.6l0-4c0.1-10.6,8.8-19.1,19.4-19l32.8,0.3c10.6,0.1,19.1,8.8,19,19.4l0,4
	c-0.1,10.6-8.8,19.1-19.4,19l-32.8-0.3C171.3,451.9,162.8,443.2,162.9,432.6z"/>
<rect id="XMLID_14_" x="119.5" y="183.1" class="st3" width="48.5" height="181.8"/>
<rect id="XMLID_1_" x="443.7" y="183.1" class="st3" width="36.4" height="181.8"/>
<rect id="XMLID_8_" x="58.8" y="590.4" class="st5" width="36.4" height="241.2"/>
<path id="XMLID_11_" class="st4" d="M373.9,432.6l0-4c0.1-10.6,8.8-19.1,19.4-19l32.8,0.3c10.6,0.1,19.1,8.8,19,19.4l0,4
	c-0.1,10.6-8.8,19.1-19.4,19l-32.8-0.3C382.3,451.9,373.8,443.2,373.9,432.6z"/>
<line id="XMLID_15_" class="st6" x1="307.4" y1="343.7" x2="422.5" y2="271.7"/>
</svg>
